module gitlab.com/oldmanswar/gotick

go 1.20

require github.com/rs/zerolog v1.31.0

require (
	aead.dev/minisign v0.2.0 // indirect
	github.com/Masterminds/semver/v3 v3.2.1 // indirect
	github.com/Mzack9999/go-http-digest-auth-client v0.6.1-0.20220414142836-eb8883508809 // indirect
	github.com/VividCortex/ewma v1.2.0 // indirect
	github.com/akrylysov/pogreb v0.10.1 // indirect
	github.com/alecthomas/chroma v0.10.0 // indirect
	github.com/andybalholm/brotli v1.0.5 // indirect
	github.com/asaskevich/govalidator v0.0.0-20230301143203-a9d515a09cc2 // indirect
	github.com/aymanbagabas/go-osc52/v2 v2.0.1 // indirect
	github.com/aymerick/douceur v0.2.0 // indirect
	github.com/charmbracelet/glamour v0.6.0 // indirect
	github.com/cheggaaa/pb/v3 v3.1.4 // indirect
	github.com/cloudflare/circl v1.3.3 // indirect
	github.com/cnf/structhash v0.0.0-20201127153200-e1b16c1ebc08 // indirect
	github.com/corpix/uarand v0.2.0 // indirect
	github.com/dimchansky/utfbom v1.1.1 // indirect
	github.com/dlclark/regexp2 v1.8.1 // indirect
	github.com/dsnet/compress v0.0.1 // indirect
	github.com/fatih/color v1.15.0 // indirect
	github.com/gaukas/godicttls v0.0.4 // indirect
	github.com/golang/protobuf v1.5.3 // indirect
	github.com/golang/snappy v0.0.4 // indirect
	github.com/google/go-github/v30 v30.1.0 // indirect
	github.com/google/go-querystring v1.1.0 // indirect
	github.com/gorilla/css v1.0.0 // indirect
	github.com/hako/durafmt v0.0.0-20210316092057-3a2c319c1acd // indirect
	github.com/json-iterator/go v1.1.12 // indirect
	github.com/klauspost/compress v1.16.7 // indirect
	github.com/lib/pq v1.10.9 // indirect
	github.com/logrusorgru/aurora v2.0.3+incompatible // indirect
	github.com/lucasb-eyer/go-colorful v1.2.0 // indirect
	github.com/mattn/go-runewidth v0.0.14 // indirect
	github.com/mholt/archiver v3.1.1+incompatible // indirect
	github.com/microcosm-cc/bluemonday v1.0.25 // indirect
	github.com/miekg/dns v1.1.55 // indirect
	github.com/minio/selfupdate v0.6.1-0.20230907112617-f11e74f84ca7 // indirect
	github.com/modern-go/concurrent v0.0.0-20180306012644-bacd9c7ef1dd // indirect
	github.com/modern-go/reflect2 v1.0.2 // indirect
	github.com/muesli/reflow v0.3.0 // indirect
	github.com/muesli/termenv v0.15.1 // indirect
	github.com/nwaples/rardecode v1.1.3 // indirect
	github.com/olekukonko/tablewriter v0.0.5 // indirect
	github.com/pierrec/lz4 v2.6.1+incompatible // indirect
	github.com/pkg/errors v0.9.1 // indirect
	github.com/projectdiscovery/blackrock v0.0.1 // indirect
	github.com/projectdiscovery/cdncheck v1.0.1 // indirect
	github.com/projectdiscovery/chaos-client v0.5.1 // indirect
	github.com/projectdiscovery/dnsx v1.1.4 // indirect
	github.com/projectdiscovery/fastdialer v0.0.37 // indirect
	github.com/projectdiscovery/goflags v0.1.20 // indirect
	github.com/projectdiscovery/gologger v1.1.11 // indirect
	github.com/projectdiscovery/hmap v0.0.18 // indirect
	github.com/projectdiscovery/networkpolicy v0.0.6 // indirect
	github.com/projectdiscovery/ratelimit v0.0.9 // indirect
	github.com/projectdiscovery/retryabledns v1.0.35 // indirect
	github.com/projectdiscovery/retryablehttp-go v1.0.26 // indirect
	github.com/projectdiscovery/utils v0.0.54 // indirect
	github.com/quic-go/quic-go v0.37.4 // indirect
	github.com/refraction-networking/utls v1.5.2 // indirect
	github.com/rivo/uniseg v0.4.4 // indirect
	github.com/rs/xid v1.5.0 // indirect
	github.com/saintfish/chardet v0.0.0-20230101081208-5e3ef4b5456d // indirect
	github.com/syndtr/goleveldb v1.0.0 // indirect
	github.com/tidwall/btree v1.4.3 // indirect
	github.com/tidwall/buntdb v1.3.0 // indirect
	github.com/tidwall/gjson v1.14.3 // indirect
	github.com/tidwall/grect v0.1.4 // indirect
	github.com/tidwall/match v1.1.1 // indirect
	github.com/tidwall/pretty v1.2.0 // indirect
	github.com/tidwall/rtred v0.1.2 // indirect
	github.com/tidwall/tinyqueue v0.1.1 // indirect
	github.com/tomnomnom/linkheader v0.0.0-20180905144013-02ca5825eb80 // indirect
	github.com/ulikunitz/xz v0.5.11 // indirect
	github.com/ulule/deepcopier v0.0.0-20200430083143-45decc6639b6 // indirect
	github.com/weppos/publicsuffix-go v0.30.1-0.20230422193905-8fecedd899db // indirect
	github.com/xi2/xz v0.0.0-20171230120015-48954b6210f8 // indirect
	github.com/yl2chen/cidranger v1.0.2 // indirect
	github.com/yuin/goldmark v1.5.4 // indirect
	github.com/yuin/goldmark-emoji v1.0.1 // indirect
	github.com/zmap/rc2 v0.0.0-20190804163417-abaa70531248 // indirect
	github.com/zmap/zcrypto v0.0.0-20230422215203-9a665e1e9968 // indirect
	go.etcd.io/bbolt v1.3.7 // indirect
	go.uber.org/multierr v1.11.0 // indirect
	golang.org/x/crypto v0.12.0 // indirect
	golang.org/x/exp v0.0.0-20230420155640-133eef4313cb // indirect
	golang.org/x/mod v0.12.0 // indirect
	golang.org/x/net v0.14.0 // indirect
	golang.org/x/oauth2 v0.11.0 // indirect
	golang.org/x/text v0.12.0 // indirect
	golang.org/x/tools v0.11.0 // indirect
	google.golang.org/appengine v1.6.7 // indirect
	google.golang.org/protobuf v1.31.0 // indirect
	gopkg.in/djherbis/times.v1 v1.3.0 // indirect
	gopkg.in/yaml.v3 v3.0.1 // indirect
)

require (
	github.com/mattn/go-colorable v0.1.13 // indirect
	github.com/mattn/go-isatty v0.0.19 // indirect
	github.com/mattn/go-sqlite3 v1.14.17
	github.com/projectdiscovery/subfinder/v2 v2.6.3
	golang.org/x/sys v0.12.0 // indirect
)
